mont_exp.vcd
$version Generated by VerilatedVcd $end
$timescale 1ps $end
 $scope module TOP $end
  $var wire 1 2 clk $end
  $var wire 1 3 rst $end
  $var wire 1 4 start $end
  $var wire 8 5 base [7:0] $end
  $var wire 8 6 exponent [7:0] $end
  $var wire 8 7 n [7:0] $end
  $var wire 8 8 n_prime [7:0] $end
  $var wire 8 9 mont_one [7:0] $end
  $var wire 8 : result [7:0] $end
  $var wire 1 ; done $end
  $scope module montexp $end
   $var wire 32 < WIDTH [31:0] $end
   $var wire 32 < R_WIDTH [31:0] $end
   $var wire 32 < EWIDTH [31:0] $end
   $var wire 1 2 clk $end
   $var wire 1 3 rst $end
   $var wire 1 4 start $end
   $var wire 8 5 base [7:0] $end
   $var wire 8 6 exponent [7:0] $end
   $var wire 8 7 n [7:0] $end
   $var wire 8 8 n_prime [7:0] $end
   $var wire 8 9 mont_one [7:0] $end
   $var wire 8 : result [7:0] $end
   $var wire 1 ; done $end
   $var wire 4 # state [3:0] $end
   $var wire 8 $ a [7:0] $end
   $var wire 8 % b [7:0] $end
   $var wire 8 & mult_result [7:0] $end
   $var wire 1 ' mult_start $end
   $var wire 1 ( mult_done $end
   $var wire 8 ) base_reg [7:0] $end
   $var wire 8 * result_reg [7:0] $end
   $var wire 8 + exp_reg [7:0] $end
   $scope module mult $end
    $var wire 32 = WIDTH [31:0] $end
    $var wire 32 = R_WIDTH [31:0] $end
    $var wire 1 2 clk $end
    $var wire 1 3 rst $end
    $var wire 1 ' start $end
    $var wire 8 $ a [7:0] $end
    $var wire 8 % b [7:0] $end
    $var wire 8 7 n [7:0] $end
    $var wire 8 8 n_prime [7:0] $end
    $var wire 8 & result [7:0] $end
    $var wire 1 ( done $end
    $var wire 3 , state [2:0] $end
    $var wire 16 - T [15:0] $end
    $var wire 16 . mN [15:0] $end
    $var wire 8 / m [7:0] $end
    $var wire 8 0 t [7:0] $end
    $var wire 8 1 result_reg [7:0] $end
   $upscope $end
  $upscope $end
 $upscope $end
$enddefinitions $end


#0
b0000 #
b00000000 $
b00000000 %
b00000000 &
0'
0(
b00000000 )
b00000000 *
b00000000 +
b000 ,
b0000000000000000 -
b0000000000000000 .
b00000000 /
b00000000 0
b00000000 1
02
13
04
b00000000 5
b00000000 6
b00000000 7
b00000000 8
b00000000 9
b00000000 :
0;
b00000000000000000000000000001000 <
b00000000000000000000000000001000 =
#1
12
#2
02
03
14
b00001011 5
b00000011 6
b00001101 7
b00111011 8
b00001001 9
#3
b0001 #
b00001011 )
b00001001 *
b00000011 +
12
#4
02
04
#5
b0010 #
12
#6
02
#7
b0011 #
b00001001 $
b00001011 %
12
#8
02
#9
b0100 #
1'
12
#10
02
#11
0'
b001 ,
12
#12
02
#13
b010 ,
b0000000001100011 -
12
#14
02
#15
b011 ,
b11010001 /
12
#16
02
#17
b100 ,
b0000101010011101 .
12
#18
02
#19
b101 ,
b00001011 0
12
#20
02
#21
b110 ,
b00001011 1
12
#22
02
#23
b00001011 &
1(
b000 ,
12
#24
02
#25
b0101 #
0(
b00001011 *
12
#26
02
#27
b0110 #
b00001011 $
12
#28
02
#29
b0111 #
1'
12
#30
02
#31
0'
b001 ,
12
#32
02
#33
b010 ,
b0000000001111001 -
12
#34
02
#35
b011 ,
b11100011 /
12
#36
02
#37
b100 ,
b0000101110000111 .
12
#38
02
#39
b101 ,
b00001100 0
12
#40
02
#41
b110 ,
b00001100 1
12
#42
02
#43
b00001100 &
1(
b000 ,
12
#44
02
#45
b0001 #
0(
b00001100 )
b00000001 +
12
#46
02
#47
b0010 #
12
#48
02
#49
b0011 #
b00001100 %
12
#50
02
#51
b0100 #
1'
12
#52
02
#53
0'
b001 ,
12
#54
02
#55
b010 ,
b0000000010000100 -
12
#56
02
#57
b011 ,
b01101100 /
12
#58
02
#59
b100 ,
b0000010101111100 .
12
#60
02
#61
b101 ,
b00000110 0
12
#62
02
#63
b110 ,
b00000110 1
12
#64
02
#65
b00000110 &
1(
b000 ,
12
#66
02
#67
b0101 #
0(
b00000110 *
12
#68
02
#69
b0110 #
b00001100 $
12
#70
02
#71
b0111 #
1'
12
#72
02
#73
0'
b001 ,
12
#74
02
#75
b010 ,
b0000000010010000 -
12
#76
02
#77
b011 ,
b00110000 /
12
#78
02
#79
b100 ,
b0000001001110000 .
12
#80
02
#81
b101 ,
b00000011 0
12
#82
02
#83
b110 ,
b00000011 1
12
#84
02
#85
b00000011 &
1(
b000 ,
12
#86
02
#87
b0001 #
0(
b00000011 )
b00000000 +
12
#88
02
#89
b0000 #
12
b00000110 :
1;
#90
b00000000 1
02
13
b00000000 :
0;
#91
12
#92
02
03
14
b00100101 5
b00000111 6
b00101111 7
b00110001 8
b00010101 9
#93
b0001 #
b00100101 )
b00010101 *
b00000111 +
12
#94
02
04
#95
b0010 #
12
#96
02
#97
b0011 #
b00010101 $
b00100101 %
12
#98
02
#99
b0100 #
1'
12
#100
02
#101
0'
b001 ,
12
#102
02
#103
b010 ,
b0000001100001001 -
12
#104
02
#105
b011 ,
b10111001 /
12
#106
02
#107
b100 ,
b0010000111110111 .
12
#108
02
#109
b101 ,
b00100101 0
12
#110
02
#111
b110 ,
b00100101 1
12
#112
02
#113
b00100101 &
1(
b000 ,
12
#114
02
#115
b0101 #
0(
b00100101 *
12
#116
02
#117
b0110 #
b00100101 $
12
#118
02
#119
b0111 #
1'
12
#120
02
#121
0'
b001 ,
12
#122
02
#123
b010 ,
b0000010101011001 -
12
#124
02
#125
b011 ,
b00001001 /
12
#126
02
#127
b100 ,
b0000000110100111 .
12
#128
02
#129
b101 ,
b00000111 0
12
#130
02
#131
b110 ,
b00000111 1
12
#132
02
#133
b00000111 &
1(
b000 ,
12
#134
02
#135
b0001 #
0(
b00000111 )
b00000011 +
12
#136
02
#137
b0010 #
12
#138
02
#139
b0011 #
b00000111 %
12
#140
02
#141
b0100 #
1'
12
#142
02
#143
0'
b001 ,
12
#144
02
#145
b010 ,
b0000000100000011 -
12
#146
02
#147
b011 ,
b10010011 /
12
#148
02
#149
b100 ,
b0001101011111101 .
12
#150
02
#151
b101 ,
b00011100 0
12
#152
02
#153
b110 ,
b00011100 1
12
#154
02
#155
b00011100 &
1(
b000 ,
12
#156
02
#157
b0101 #
0(
b00011100 *
12
#158
02
#159
b0110 #
b00000111 $
12
#160
02
#161
b0111 #
1'
12
#162
02
#163
0'
b001 ,
12
#164
02
#165
b010 ,
b0000000000110001 -
12
#166
02
#167
b011 ,
b01100001 /
12
#168
02
#169
b100 ,
b0001000111001111 .
12
#170
02
#171
b101 ,
b00010010 0
12
#172
02
#173
b110 ,
b00010010 1
12
#174
02
#175
b00010010 &
1(
b000 ,
12
#176
02
#177
b0001 #
0(
b00010010 )
b00000001 +
12
#178
02
#179
b0010 #
12
#180
02
#181
b0011 #
b00011100 $
b00010010 %
12
#182
02
#183
b0100 #
1'
12
#184
02
#185
0'
b001 ,
12
#186
02
#187
b010 ,
b0000000111111000 -
12
#188
02
#189
b011 ,
b01111000 /
12
#190
02
#191
b100 ,
b0001011000001000 .
12
#192
02
#193
b101 ,
b00011000 0
12
#194
02
#195
b110 ,
b00011000 1
12
#196
02
#197
b00011000 &
1(
b000 ,
12
#198
02
#199
b0101 #
0(
b00011000 *
12
#200
02
#201
b0110 #
b00010010 $
12
#202
02
#203
b0111 #
1'
12
#204
02
#205
0'
b001 ,
12
#206
02
#207
b010 ,
b0000000101000100 -
12
#208
02
#209
b011 ,
b00000100 /
12
#210
02
#211
b100 ,
b0000000010111100 .
12
#212
02
#213
b101 ,
b00000010 0
12
#214
02
#215
b110 ,
b00000010 1
12
#216
02
#217
b00000010 &
1(
b000 ,
12
#218
02
#219
b0001 #
0(
b00000010 )
b00000000 +
12
#220
02
#221
b0000 #
12
b00011000 :
1;
#222
b00000000 1
02
13
b00000000 :
0;
#223
12
#224
02
03
14
b00000010 5
b00000101 6
b00010001 7
b00001111 8
b00000001 9
#225
b0001 #
b00000001 *
b00000101 +
12
#226
02
04
#227
b0010 #
12
#228
02
#229
b0011 #
b00000001 $
b00000010 %
12
#230
02
#231
b0100 #
1'
12
#232
02
#233
0'
b001 ,
12
#234
02
#235
b010 ,
b0000000000000010 -
12
#236
02
#237
b011 ,
b00011110 /
12
#238
02
#239
b100 ,
b0000000111111110 .
12
#240
02
#241
b101 ,
12
#242
02
#243
b110 ,
b00000010 1
12
#244
02
#245
1(
b000 ,
12
#246
02
#247
b0101 #
0(
b00000010 *
12
#248
02
#249
b0110 #
b00000010 $
12
#250
02
#251
b0111 #
1'
12
#252
02
#253
0'
b001 ,
12
#254
02
#255
b010 ,
b0000000000000100 -
12
#256
02
#257
b011 ,
b00111100 /
12
#258
02
#259
b100 ,
b0000001111111100 .
12
#260
02
#261
b101 ,
b00000100 0
12
#262
02
#263
b110 ,
b00000100 1
12
#264
02
#265
b00000100 &
1(
b000 ,
12
#266
02
#267
b0001 #
0(
b00000100 )
b00000010 +
12
#268
02
#269
b0101 #
12
#270
02
#271
b0110 #
b00000100 $
b00000100 %
12
#272
02
#273
b0111 #
1'
12
#274
02
#275
0'
b001 ,
12
#276
02
#277
b010 ,
b0000000000010000 -
12
#278
02
#279
b011 ,
b11110000 /
12
#280
02
#281
b100 ,
b0000111111110000 .
12
#282
02
#283
b101 ,
b00010000 0
12
#284
02
#285
b110 ,
b00010000 1
12
#286
02
#287
b00010000 &
1(
b000 ,
12
#288
02
#289
b0001 #
0(
b00010000 )
b00000001 +
12
#290
02
#291
b0010 #
12
#292
02
#293
b0011 #
b00000010 $
b00010000 %
12
#294
02
#295
b0100 #
1'
12
#296
02
#297
0'
b001 ,
12
#298
02
#299
b010 ,
b0000000000100000 -
12
#300
02
#301
b011 ,
b11100000 /
12
#302
02
#303
b100 ,
b0000111011100000 .
12
#304
02
#305
b101 ,
b00001111 0
12
#306
02
#307
b110 ,
b00001111 1
12
#308
02
#309
b00001111 &
1(
b000 ,
12
#310
02
#311
b0101 #
0(
b00001111 *
12
#312
02
#313
b0110 #
b00010000 $
12
#314
02
#315
b0111 #
1'
12
#316
02
#317
0'
b001 ,
12
#318
02
#319
b010 ,
b0000000100000000 -
12
#320
02
#321
b011 ,
b00000000 /
12
#322
02
#323
b100 ,
b0000000000000000 .
12
#324
02
#325
b101 ,
b00000001 0
12
#326
02
#327
b110 ,
b00000001 1
12
#328
02
#329
b00000001 &
1(
b000 ,
12
#330
02
#331
b0001 #
0(
b00000001 )
b00000000 +
12
#332
02
#333
b0000 #
12
b00001111 :
1;
