montgomery_cios.vcd
$version Generated by VerilatedVcd $end
$timescale 1ps $end
 $scope module TOP $end
  $var wire 1 D clk $end
  $var wire 1 E rst_n $end
  $var wire 1 F start $end
  $var wire 16 G a_0 [15:0] $end
  $var wire 16 H a_1 [15:0] $end
  $var wire 16 I a_2 [15:0] $end
  $var wire 16 J a_3 [15:0] $end
  $var wire 16 K b_0 [15:0] $end
  $var wire 16 L b_1 [15:0] $end
  $var wire 16 M b_2 [15:0] $end
  $var wire 16 N b_3 [15:0] $end
  $var wire 16 O m_0 [15:0] $end
  $var wire 16 P m_1 [15:0] $end
  $var wire 16 Q m_2 [15:0] $end
  $var wire 16 R m_3 [15:0] $end
  $var wire 16 S m_prime [15:0] $end
  $var wire 16 T result_0 [15:0] $end
  $var wire 16 U result_1 [15:0] $end
  $var wire 16 V result_2 [15:0] $end
  $var wire 16 W result_3 [15:0] $end
  $var wire 1 X done $end
  $scope module montgomery_cios $end
   $var wire 32 Z W [31:0] $end
   $var wire 32 [ S [31:0] $end
   $var wire 1 D clk $end
   $var wire 1 E rst_n $end
   $var wire 1 F start $end
   $var wire 16 G a_0 [15:0] $end
   $var wire 16 H a_1 [15:0] $end
   $var wire 16 I a_2 [15:0] $end
   $var wire 16 J a_3 [15:0] $end
   $var wire 16 K b_0 [15:0] $end
   $var wire 16 L b_1 [15:0] $end
   $var wire 16 M b_2 [15:0] $end
   $var wire 16 N b_3 [15:0] $end
   $var wire 16 O m_0 [15:0] $end
   $var wire 16 P m_1 [15:0] $end
   $var wire 16 Q m_2 [15:0] $end
   $var wire 16 R m_3 [15:0] $end
   $var wire 16 S m_prime [15:0] $end
   $var wire 16 T result_0 [15:0] $end
   $var wire 16 U result_1 [15:0] $end
   $var wire 16 V result_2 [15:0] $end
   $var wire 16 W result_3 [15:0] $end
   $var wire 1 X done $end
   $var wire 4 / state [3:0] $end
   $var wire 4 Y next_state [3:0] $end
   $var wire 16 # A_reg[0] [15:0] $end
   $var wire 16 $ A_reg[1] [15:0] $end
   $var wire 16 % A_reg[2] [15:0] $end
   $var wire 16 & A_reg[3] [15:0] $end
   $var wire 16 ' B_reg[0] [15:0] $end
   $var wire 16 ( B_reg[1] [15:0] $end
   $var wire 16 ) B_reg[2] [15:0] $end
   $var wire 16 * B_reg[3] [15:0] $end
   $var wire 16 + M_reg[0] [15:0] $end
   $var wire 16 , M_reg[1] [15:0] $end
   $var wire 16 - M_reg[2] [15:0] $end
   $var wire 16 . M_reg[3] [15:0] $end
   $var wire 16 0 T[0] [15:0] $end
   $var wire 16 1 T[1] [15:0] $end
   $var wire 16 2 T[2] [15:0] $end
   $var wire 16 3 T[3] [15:0] $end
   $var wire 16 4 T[4] [15:0] $end
   $var wire 2 5 i [1:0] $end
   $var wire 3 6 j [2:0] $end
   $var wire 2 7 j_trunc [1:0] $end
   $var wire 32 8 mul_tmp [31:0] $end
   $var wire 17 9 add_tmp [16:0] $end
   $var wire 17 : carry_ext [16:0] $end
   $var wire 16 ; u [15:0] $end
   $var wire 32 < reduce_tmp [31:0] $end
   $var wire 1 = gt_flag $end
   $scope module unnamedblk1 $end
    $var wire 32 > k [31:0] $end
   $upscope $end
   $scope module unnamedblk2 $end
    $var wire 32 ? k [31:0] $end
   $upscope $end
   $scope module unnamedblk3 $end
    $var wire 32 @ k [31:0] $end
   $upscope $end
   $scope module unnamedblk4 $end
    $var wire 32 A k [31:0] $end
   $upscope $end
   $scope module unnamedblk5 $end
    $var wire 32 B k [31:0] $end
    $scope module unnamedblk6 $end
     $var wire 16 C tmp [15:0] $end
    $upscope $end
   $upscope $end
  $upscope $end
 $upscope $end
$enddefinitions $end


#0
b0000000000000000 #
b0000000000000000 $
b0000000000000000 %
b0000000000000000 &
b0000000000000000 '
b0000000000000000 (
b0000000000000000 )
b0000000000000000 *
b0000000000000000 +
b0000000000000000 ,
b0000000000000000 -
b0000000000000000 .
b0000 /
b0000000000000000 0
b0000000000000000 1
b0000000000000000 2
b0000000000000000 3
b0000000000000000 4
b00 5
b000 6
b00 7
b00000000000000000000000000000000 8
b00000000000000000 9
b00000000000000000 :
b0000000000000000 ;
b00000000000000000000000000000000 <
0=
b00000000000000000000000000000000 >
b00000000000000000000000000000000 ?
b00000000000000000000000000000000 @
b00000000000000000000000000000000 A
b00000000000000000000000000000000 B
b0000000000000000 C
0D
0E
0F
b0000000000000000 G
b0000000000000000 H
b0000000000000000 I
b0000000000000000 J
b0000000000000000 K
b0000000000000000 L
b0000000000000000 M
b0000000000000000 N
b0000000000000000 O
b0000000000000000 P
b0000000000000000 Q
b0000000000000000 R
b0000000000000000 S
b0000000000000000 T
b0000000000000000 U
b0000000000000000 V
b0000000000000000 W
0X
b0000 Y
b00000000000000000000000000010000 Z
b00000000000000000000000000000100 [
#10
b00000000000000000000000000000101 >
1D
#20
0D
#30
1D
#40
0D
#45
b0000000000000001 #
b0000000000001001 '
b0000000000001101 +
b0011 /
b001 6
b00000000000000000000000000001001 8
b00000000000000000000000000000100 ?
1D
1E
b0000000000000001 G
b0000000000001001 K
b0000000000001101 O
b0000000000111011 S
b0011 Y
#55
0D
#65
b0000000000001001 0
b010 6
b01 7
b00000000000000000000000000000000 8
b00000000000001001 9
1D
#75
0D
#85
b011 6
b10 7
b00000000000000000 9
1D
#95
0D
#105
b100 6
b11 7
1D
b0100 Y
#115
0D
#125
b0100 /
b101 6
b00 7
b00000000000000000000000000001001 8
1D
b0101 Y
#135
0D
#145
b0101 /
b000 6
b01 7
1D
b0110 Y
#155
0D
#165
b0110 /
b00 7
b0000001000010011 ;
1D
#175
0D
#185
b0001101100000000 0
b001 6
b00001101100000000 9
b00000000000000000001101011110111 <
1D
#195
0D
#205
b010 6
b01 7
b00000000000000000 9
b00000000000000000000000000000000 <
1D
#215
0D
#225
b011 6
b10 7
1D
#235
0D
#245
b100 6
b11 7
1D
b0111 Y
#255
0D
#265
b0111 /
b0001101011110111 4
b101 6
b00 7
b00001101011110111 9
b00000000000000000001101011110111 <
1D
b0010 Y
#275
0D
#285
b0010 /
b0000000000000000 0
b0001101011110111 3
b0000000000000000 4
b01 5
b000 6
b01 7
b00000000000000000000000000000100 @
1D
b0011 Y
#295
0D
#305
b0011 /
b0000000000001001 0
b001 6
b00 7
b00000000000000000000000000000000 8
b00000000000001001 9
1D
#315
0D
#325
b0000000000000000 0
b010 6
b01 7
b00000000000000000 9
1D
#335
0D
#345
b011 6
b10 7
1D
#355
0D
#365
b0001101011110111 2
b100 6
b11 7
b00001101011110111 9
1D
b0100 Y
#375
0D
#385
b0100 /
b0000000000000000 3
b101 6
b00 7
b00000000000000000 9
1D
b0101 Y
#395
0D
#405
b0101 /
b000 6
b01 7
1D
b0110 Y
#415
0D
#425
b0110 /
b00 7
b0000000000000000 ;
1D
#435
0D
#445
b001 6
b00000000000000000000000000000000 <
1D
#455
0D
#465
b010 6
b01 7
1D
#475
0D
#485
b011 6
b10 7
b00001101011110111 9
1D
#495
0D
#505
b100 6
b11 7
b00000000000000000 9
1D
b0111 Y
#515
0D
#525
b0111 /
b101 6
b00 7
1D
b0010 Y
#535
0D
#545
b0010 /
b0001101011110111 1
b0000000000000000 2
b10 5
b000 6
b01 7
1D
b0011 Y
#555
0D
#565
b0011 /
b001 6
b00 7
1D
#575
0D
#585
b0001101011110111 0
b010 6
b01 7
b00001101011110111 9
1D
#595
0D
#605
b0000000000000000 1
b011 6
b10 7
b00000000000000000 9
1D
#615
0D
#625
b100 6
b11 7
1D
b0100 Y
#635
0D
#645
b0100 /
b101 6
b00 7
1D
b0101 Y
#655
0D
#665
b0101 /
b000 6
b01 7
1D
b0110 Y
#675
0D
#685
b0110 /
b00 7
b0011011011101101 ;
1D
#695
0D
#705
b1110010100000000 0
b001 6
b01110010100000000 9
b00000000000000101100101000001001 <
1D
#715
0D
#725
b010 6
b01 7
b00000000000000000 9
b00000000000000000000000000000000 <
1D
#735
0D
#745
b011 6
b10 7
1D
#755
0D
#765
b100 6
b11 7
1D
b0111 Y
#775
0D
#785
b0111 /
b1100101000001001 4
b101 6
b00 7
b01100101000001001 9
b00000000000000101100101000001001 <
1D
b0010 Y
#795
0D
#805
b0010 /
b0000000000000000 0
b1100101000001001 3
b0000000000000000 4
b11 5
b000 6
b01 7
1D
b0011 Y
#815
0D
#825
b0011 /
b001 6
b00 7
b00000000000000000 9
1D
#835
0D
#845
b010 6
b01 7
1D
#855
0D
#865
b011 6
b10 7
1D
#875
0D
#885
b1100101000001001 2
b100 6
b11 7
b01100101000001001 9
1D
b0100 Y
#895
0D
#905
b0100 /
b0000000000000000 3
b101 6
b00 7
b00000000000000000 9
1D
b0101 Y
#915
0D
#925
b0101 /
b000 6
b01 7
1D
b0110 Y
#935
0D
#945
b0110 /
b00 7
b0000000000000000 ;
1D
#955
0D
#965
b001 6
b00000000000000000000000000000000 <
1D
#975
0D
#985
b010 6
b01 7
1D
#995
0D
#1005
b011 6
b10 7
b01100101000001001 9
1D
#1015
0D
#1025
b100 6
b11 7
b00000000000000000 9
1D
b0111 Y
#1035
0D
#1045
b0111 /
b101 6
b00 7
1D
b1000 Y
#1055
0D
#1065
b1000 /
b1100101000001001 1
b0000000000000000 2
b00 5
b000 6
b01 7
1D
b1001 Y
#1075
0D
#1085
b1001 /
b00 7
b11111111111111111111111111111111 A
1D
b1010 Y
#1095
0D
#1105
b1010 /
b00000000000000000000000000000100 B
1D
b1100101000001001 U
b1011 Y
#1115
0D
#1125
b1011 /
1D
1X
b0000 Y
