wave.vcd
$version Generated by VerilatedVcd $end
$timescale 1ps $end
 $scope module TOP $end
  $var wire 1 D clk $end
  $var wire 1 E rst_n $end
  $var wire 1 F start $end
  $var wire 16 G a[0] [15:0] $end
  $var wire 16 H a[1] [15:0] $end
  $var wire 16 I a[2] [15:0] $end
  $var wire 16 J a[3] [15:0] $end
  $var wire 16 K b[0] [15:0] $end
  $var wire 16 L b[1] [15:0] $end
  $var wire 16 M b[2] [15:0] $end
  $var wire 16 N b[3] [15:0] $end
  $var wire 16 O m[0] [15:0] $end
  $var wire 16 P m[1] [15:0] $end
  $var wire 16 Q m[2] [15:0] $end
  $var wire 16 R m[3] [15:0] $end
  $var wire 16 S m_prime [15:0] $end
  $var wire 16 T result[0] [15:0] $end
  $var wire 16 U result[1] [15:0] $end
  $var wire 16 V result[2] [15:0] $end
  $var wire 16 W result[3] [15:0] $end
  $var wire 1 X done $end
  $scope module montgomery_cios $end
   $var wire 32 Z W [31:0] $end
   $var wire 32 [ S [31:0] $end
   $var wire 1 D clk $end
   $var wire 1 E rst_n $end
   $var wire 1 F start $end
   $var wire 16 G a[0] [15:0] $end
   $var wire 16 H a[1] [15:0] $end
   $var wire 16 I a[2] [15:0] $end
   $var wire 16 J a[3] [15:0] $end
   $var wire 16 K b[0] [15:0] $end
   $var wire 16 L b[1] [15:0] $end
   $var wire 16 M b[2] [15:0] $end
   $var wire 16 N b[3] [15:0] $end
   $var wire 16 O m[0] [15:0] $end
   $var wire 16 P m[1] [15:0] $end
   $var wire 16 Q m[2] [15:0] $end
   $var wire 16 R m[3] [15:0] $end
   $var wire 16 S m_prime [15:0] $end
   $var wire 16 T result[0] [15:0] $end
   $var wire 16 U result[1] [15:0] $end
   $var wire 16 V result[2] [15:0] $end
   $var wire 16 W result[3] [15:0] $end
   $var wire 1 X done $end
   $var wire 4 # state [3:0] $end
   $var wire 4 Y next_state [3:0] $end
   $var wire 16 $ A_reg[0] [15:0] $end
   $var wire 16 % A_reg[1] [15:0] $end
   $var wire 16 & A_reg[2] [15:0] $end
   $var wire 16 ' A_reg[3] [15:0] $end
   $var wire 16 ( B_reg[0] [15:0] $end
   $var wire 16 ) B_reg[1] [15:0] $end
   $var wire 16 * B_reg[2] [15:0] $end
   $var wire 16 + B_reg[3] [15:0] $end
   $var wire 16 , M_reg[0] [15:0] $end
   $var wire 16 - M_reg[1] [15:0] $end
   $var wire 16 . M_reg[2] [15:0] $end
   $var wire 16 / M_reg[3] [15:0] $end
   $var wire 16 0 T[0] [15:0] $end
   $var wire 16 1 T[1] [15:0] $end
   $var wire 16 2 T[2] [15:0] $end
   $var wire 16 3 T[3] [15:0] $end
   $var wire 16 4 T[4] [15:0] $end
   $var wire 2 5 i [1:0] $end
   $var wire 2 6 j [1:0] $end
   $var wire 3 7 t_index [2:0] $end
   $var wire 32 8 mul_tmp [31:0] $end
   $var wire 17 9 add_tmp [16:0] $end
   $var wire 16 : u [15:0] $end
   $var wire 32 ; reduce_mul [31:0] $end
   $var wire 16 < carry [15:0] $end
   $var wire 1 = gt_flag $end
   $var wire 16 > T_tmp [15:0] $end
   $scope module unnamedblk1 $end
    $var wire 32 ? k [31:0] $end
   $upscope $end
   $scope module unnamedblk2 $end
    $var wire 32 @ k [31:0] $end
   $upscope $end
   $scope module unnamedblk3 $end
    $var wire 32 A k [31:0] $end
   $upscope $end
   $scope module unnamedblk4 $end
    $var wire 32 B k [31:0] $end
   $upscope $end
   $scope module unnamedblk5 $end
    $var wire 32 C k [31:0] $end
   $upscope $end
  $upscope $end
 $upscope $end
$enddefinitions $end


#0
b0000 #
b0000000000000000 $
b0000000000000000 %
b0000000000000000 &
b0000000000000000 '
b0000000000000000 (
b0000000000000000 )
b0000000000000000 *
b0000000000000000 +
b0000000000000000 ,
b0000000000000000 -
b0000000000000000 .
b0000000000000000 /
b0000000000000000 0
b0000000000000000 1
b0000000000000000 2
b0000000000000000 3
b0000000000000000 4
b00 5
b00 6
b000 7
b00000000000000000000000000000000 8
b00000000000000000 9
b0000000000000000 :
b00000000000000000000000000000000 ;
b0000000000000000 <
0=
b0000000000000000 >
b00000000000000000000000000000000 ?
b00000000000000000000000000000000 @
b00000000000000000000000000000000 A
b00000000000000000000000000000000 B
b00000000000000000000000000000000 C
1D
0E
0F
b0000000000000000 G
b0000000000000000 H
b0000000000000000 I
b0000000000000000 J
b0000000000000000 K
b0000000000000000 L
b0000000000000000 M
b0000000000000000 N
b0000000000000000 O
b0000000000000000 P
b0000000000000000 Q
b0000000000000000 R
b0000000000000000 S
b0000000000000000 T
b0000000000000000 U
b0000000000000000 V
b0000000000000000 W
0X
b0000 Y
b00000000000000000000000000010000 Z
b00000000000000000000000000000100 [
#1
0D
#2
b00000000000000000000000000000101 ?
1D
#3
0D
#10
b0001 #
1D
1E
1F
b0000000000000101 G
b0000000000001001 K
b0000000000010001 O
b0000111100001111 S
b0010 Y
#11
0D
0F
#12
b0010 #
b0000000000000101 $
b0000000000001001 (
b0000000000010001 ,
b00000000000000000000000000000100 @
1D
b0011 Y
#13
0D
#14
b0011 #
1D
b0100 Y
#15
0D
#16
b0100 #
b00000000000000000000000000101101 8
1D
b0101 Y
#17
0D
#18
b0101 #
b0000000000101101 0
b00000000000101101 9
b0000000000101101 <
b0000000000101101 >
1D
b0011 Y
#19
0D
#20
b0011 #
b01 6
1D
b0100 Y
#21
0D
#22
b0100 #
b00000000000000000000000000000000 8
1D
b0101 Y
#23
0D
#24
b0101 #
b0000000001011010 0
b001 7
b00000000001011010 9
b0000000001011010 <
b0000000001011010 >
1D
b0011 Y
#25
0D
#26
b0011 #
b10 6
1D
b0100 Y
#27
0D
#28
b0100 #
1D
b0101 Y
#29
0D
#30
b0101 #
b0000000001011010 1
b010 7
1D
b0011 Y
#31
0D
#32
b0011 #
b11 6
1D
b0100 Y
#33
0D
#34
b0100 #
1D
b0110 Y
#35
0D
#36
b0110 #
b0000000001011010 2
b011 7
1D
b0111 Y
#37
0D
#38
b0111 #
b00 6
b0100101101000110 :
b0000000000000000 <
1D
b1000 Y
#39
0D
#40
b1000 #
b00000000000001001111111110100110 ;
1D
b0111 Y
#41
0D
#42
b0111 #
b1111111110100110 3
b01 6
b000 7
b01111111110100110 9
b1111111110100110 <
1D
b1000 Y
#43
0D
#44
b1000 #
b00000000000000000000000000000000 ;
1D
b0111 Y
#45
0D
#46
b0111 #
b0000000000000000 0
b10 6
b001 7
b10000000000000000 9
b0000000000000000 <
1D
b1000 Y
#47
0D
#48
b1000 #
1D
b0111 Y
#49
0D
#50
b0111 #
b11 6
b010 7
b00000000001011010 9
b0000000001011010 <
1D
b1000 Y
#51
0D
#52
b1000 #
1D
b1001 Y
#53
0D
#54
b1001 #
b0000000010110100 2
b00 6
b011 7
b00000000010110100 9
b0000000010110100 <
1D
b0010 Y
#55
0D
#56
b0010 #
b0000000001011010 0
b0000000010110100 1
b1111111110100110 2
b0000000000000000 3
b01 5
b00000000000000000000000000000100 A
1D
b0011 Y
#57
0D
#58
b0011 #
b0000000000000000 <
1D
b0100 Y
#59
0D
#60
b0100 #
1D
b0101 Y
#61
0D
#62
b0101 #
b000 7
b00000000000000000 9
b0000000000000000 >
1D
b0011 Y
#63
0D
#64
b0011 #
b01 6
1D
b0100 Y
#65
0D
#66
b0100 #
1D
b0101 Y
#67
0D
#68
b0101 #
b001 7
b00000000001011010 9
b0000000001011010 <
b0000000001011010 >
1D
b0011 Y
#69
0D
#70
b0011 #
b10 6
1D
b0100 Y
#71
0D
#72
b0100 #
1D
b0101 Y
#73
0D
#74
b0101 #
b0000000100001110 1
b010 7
b00000000100001110 9
b0000000100001110 <
b0000000100001110 >
1D
b0011 Y
#75
0D
#76
b0011 #
b11 6
1D
b0100 Y
#77
0D
#78
b0100 #
1D
b0110 Y
#79
0D
#80
b0110 #
b0000000010110100 2
b011 7
b10000000010110100 9
b0000000010110100 <
b0000000010110100 >
1D
b0111 Y
#81
0D
#82
b0111 #
b00 6
b0000000000000000 <
1D
b1000 Y
#83
0D
#84
b1000 #
b00000000000001001111111110100110 ;
1D
b0111 Y
#85
0D
#86
b0111 #
b1111111110100110 3
b01 6
b000 7
b01111111110100110 9
b1111111110100110 <
1D
b1000 Y
#87
0D
#88
b1000 #
b00000000000000000000000000000000 ;
1D
b0111 Y
#89
0D
#90
b0111 #
b0000000000000000 0
b10 6
b001 7
b10000000000000000 9
b0000000000000000 <
1D
b1000 Y
#91
0D
#92
b1000 #
1D
b0111 Y
#93
0D
#94
b0111 #
b11 6
b010 7
b00000000100001110 9
b0000000100001110 <
1D
b1000 Y
#95
0D
#96
b1000 #
1D
b1001 Y
#97
0D
#98
b1001 #
b0000000111000010 2
b00 6
b011 7
b00000000111000010 9
b0000000111000010 <
1D
b0010 Y
#99
0D
#100
b0010 #
b0000000100001110 0
b0000000111000010 1
b1111111110100110 2
b0000000000000000 3
b10 5
1D
b0011 Y
#101
0D
#102
b0011 #
b0000000000000000 <
1D
b0100 Y
#103
0D
#104
b0100 #
1D
b0101 Y
#105
0D
#106
b0101 #
b000 7
b00000000000000000 9
b0000000000000000 >
1D
b0011 Y
#107
0D
#108
b0011 #
b01 6
1D
b0100 Y
#109
0D
#110
b0100 #
1D
b0101 Y
#111
0D
#112
b0101 #
b001 7
b00000000100001110 9
b0000000100001110 <
b0000000100001110 >
1D
b0011 Y
#113
0D
#114
b0011 #
b10 6
1D
b0100 Y
#115
0D
#116
b0100 #
1D
b0101 Y
#117
0D
#118
b0101 #
b0000001011010000 1
b010 7
b00000001011010000 9
b0000001011010000 <
b0000001011010000 >
1D
b0011 Y
#119
0D
#120
b0011 #
b11 6
1D
b0100 Y
#121
0D
#122
b0100 #
1D
b0110 Y
#123
0D
#124
b0110 #
b0000001001110110 2
b011 7
b10000001001110110 9
b0000001001110110 <
b0000001001110110 >
1D
b0111 Y
#125
0D
#126
b0111 #
b00 6
b1110000111010010 :
b0000000000000000 <
1D
b1000 Y
#127
0D
#128
b1000 #
b00000000000011101111111011110010 ;
1D
b0111 Y
#129
0D
#130
b0111 #
b1111111011110010 3
b01 6
b000 7
b01111111011110010 9
b1111111011110010 <
1D
b1000 Y
#131
0D
#132
b1000 #
b00000000000000000000000000000000 ;
1D
b0111 Y
#133
0D
#134
b0111 #
b0000000000000000 0
b10 6
b001 7
b10000000000000000 9
b0000000000000000 <
1D
b1000 Y
#135
0D
#136
b1000 #
1D
b0111 Y
#137
0D
#138
b0111 #
b11 6
b010 7
b00000001011010000 9
b0000001011010000 <
1D
b1000 Y
#139
0D
#140
b1000 #
1D
b1001 Y
#141
0D
#142
b1001 #
b0000010101000110 2
b00 6
b011 7
b00000010101000110 9
b0000010101000110 <
1D
b0010 Y
#143
0D
#144
b0010 #
b0000001011010000 0
b0000010101000110 1
b1111111011110010 2
b0000000000000000 3
b11 5
1D
b0011 Y
#145
0D
#146
b0011 #
b0000000000000000 <
1D
b0100 Y
#147
0D
#148
b0100 #
1D
b0101 Y
#149
0D
#150
b0101 #
b000 7
b00000000000000000 9
b0000000000000000 >
1D
b0011 Y
#151
0D
#152
b0011 #
b01 6
1D
b0100 Y
#153
0D
#154
b0100 #
1D
b0101 Y
#155
0D
#156
b0101 #
b001 7
b00000001011010000 9
b0000001011010000 <
b0000001011010000 >
1D
b0011 Y
#157
0D
#158
b0011 #
b10 6
1D
b0100 Y
#159
0D
#160
b0100 #
1D
b0101 Y
#161
0D
#162
b0101 #
b0000100000010110 1
b010 7
b00000100000010110 9
b0000100000010110 <
b0000100000010110 >
1D
b0011 Y
#163
0D
#164
b0011 #
b11 6
1D
b0100 Y
#165
0D
#166
b0100 #
1D
b0110 Y
#167
0D
#168
b0110 #
b0000011100001000 2
b011 7
b10000011100001000 9
b0000011100001000 <
b0000011100001000 >
1D
b0111 Y
#169
0D
#170
b0111 #
b00 6
b0101101000110000 :
b0000000000000000 <
1D
b1000 Y
#171
0D
#172
b1000 #
b00000000000001011111110100110000 ;
1D
b0111 Y
#173
0D
#174
b0111 #
b1111110100110000 3
b01 6
b000 7
b01111110100110000 9
b1111110100110000 <
1D
b1000 Y
#175
0D
#176
b1000 #
b00000000000000000000000000000000 ;
1D
b0111 Y
#177
0D
#178
b0111 #
b0000000000000000 0
b10 6
b001 7
b10000000000000000 9
b0000000000000000 <
1D
b1000 Y
#179
0D
#180
b1000 #
1D
b0111 Y
#181
0D
#182
b0111 #
b11 6
b010 7
b00000100000010110 9
b0000100000010110 <
1D
b1000 Y
#183
0D
#184
b1000 #
1D
b1001 Y
#185
0D
#186
b1001 #
b0000111100011110 2
b00 6
b011 7
b00000111100011110 9
b0000111100011110 <
1D
b1010 Y
#187
0D
#188
b1010 #
b0000100000010110 0
b0000111100011110 1
b1111110100110000 2
b0000000000000000 3
b00 5
1D
b1011 Y
#189
0D
#190
b1011 #
1=
b11111111111111111111111111111111 B
1D
b1100 Y
#191
0D
#192
b1100 #
b00000000000000000000000000000100 C
1D
b0000100000000101 T
b0000111100011110 U
b1111110100110000 V
b1101 Y
#193
0D
#194
b1101 #
1D
1X
b0000 Y
