wave.vcd
$version Generated by VerilatedVcd $end
$timescale 1ps $end
 $scope module TOP $end
  $var wire 1 ) clk $end
  $var wire 1 * rst $end
  $var wire 1 + start $end
  $var wire 8 , a [7:0] $end
  $var wire 8 - b [7:0] $end
  $var wire 8 . n [7:0] $end
  $var wire 8 / n_prime [7:0] $end
  $var wire 8 0 result [7:0] $end
  $var wire 1 1 done $end
  $scope module montmult $end
   $var wire 32 2 WIDTH [31:0] $end
   $var wire 32 2 R_WIDTH [31:0] $end
   $var wire 1 ) clk $end
   $var wire 1 * rst $end
   $var wire 1 + start $end
   $var wire 8 , a [7:0] $end
   $var wire 8 - b [7:0] $end
   $var wire 8 . n [7:0] $end
   $var wire 8 / n_prime [7:0] $end
   $var wire 8 0 result [7:0] $end
   $var wire 1 1 done $end
   $var wire 3 # state [2:0] $end
   $var wire 16 $ T [15:0] $end
   $var wire 16 % mN [15:0] $end
   $var wire 8 & m [7:0] $end
   $var wire 8 ' t [7:0] $end
   $var wire 8 ( result_reg [7:0] $end
  $upscope $end
 $upscope $end
$enddefinitions $end


#0
b000 #
b0000000000000000 $
b0000000000000000 %
b00000000 &
b00000000 '
b00000000 (
0)
0*
1+
b00011000 ,
b00000010 -
b00101111 .
b00110001 /
b00000000 0
01
b00000000000000000000000000001000 2
#1
b001 #
1)
#2
0)
0+
#3
b010 #
b0000000000110000 $
1)
#4
0)
#5
b011 #
b00110000 &
1)
#6
0)
#7
b100 #
b0000100011010000 %
1)
#8
0)
#9
b101 #
b00001001 '
1)
#10
0)
#11
b110 #
b00001001 (
1)
#12
0)
#13
b000 #
1)
b00001001 0
11
